^D:\DESCARGAS\EXPRESSION\EXPRESSIONLEXER.CPP
/c /ID:\DESCARGAS\EXPRESSION\/INCLUDE /ZI /JMC /nologo /W3 /WX- /diagnostics:column /sdl /Od /D _DEBUG /D _CONSOLE /D _UNICODE /D UNICODE /Gm- /EHsc /RTC1 /MDd /GS /fp:precise /Zc:wchar_t /Zc:forScope /Zc:inline /permissive- /Fo"EXPRESSION\X64\DEBUG\\" /Fd"EXPRESSION\X64\DEBUG\VC143.PDB" /external:W3 /Gd /TP /FC D:\DESCARGAS\EXPRESSION\EXPRESSIONLEXER.CPP
^D:\DESCARGAS\EXPRESSION\EXPRESSIONPARSER.CPP
/c /ID:\DESCARGAS\EXPRESSION\/INCLUDE /ZI /JMC /nologo /W3 /WX- /diagnostics:column /sdl /Od /D _DEBUG /D _CONSOLE /D _UNICODE /D UNICODE /Gm- /EHsc /RTC1 /MDd /GS /fp:precise /Zc:wchar_t /Zc:forScope /Zc:inline /permissive- /Fo"EXPRESSION\X64\DEBUG\\" /Fd"EXPRESSION\X64\DEBUG\VC143.PDB" /external:W3 /Gd /TP /FC D:\DESCARGAS\EXPRESSION\EXPRESSIONPARSER.CPP
^D:\DESCARGAS\PROBARCALULADORA\CALCULATORLEXER.CPP
/c /I"D:\DESCARGAS\TP-GRUPO4\/INCLUDE" /ZI /JMC /nologo /W3 /WX- /diagnostics:column /sdl /Od /D _DEBUG /D _CONSOLE /D _UNICODE /D UNICODE /Gm- /EHsc /RTC1 /MDd /GS /fp:precise /Zc:wchar_t /Zc:forScope /Zc:inline /permissive- /Fo"EXPRESSION\X64\DEBUG\\" /Fd"EXPRESSION\X64\DEBUG\VC143.PDB" /external:W3 /Gd /TP /FC D:\DESCARGAS\PROBARCALULADORA\CALCULATORLEXER.CPP
^D:\DESCARGAS\PROBARCALULADORA\CALCULATORPARSER.CPP
/c /I"D:\DESCARGAS\TP-GRUPO4\/INCLUDE" /ZI /JMC /nologo /W3 /WX- /diagnostics:column /sdl /Od /D _DEBUG /D _CONSOLE /D _UNICODE /D UNICODE /Gm- /EHsc /RTC1 /MDd /GS /fp:precise /Zc:wchar_t /Zc:forScope /Zc:inline /permissive- /Fo"EXPRESSION\X64\DEBUG\\" /Fd"EXPRESSION\X64\DEBUG\VC143.PDB" /external:W3 /Gd /TP /FC D:\DESCARGAS\PROBARCALULADORA\CALCULATORPARSER.CPP
^D:\DESCARGAS\PROBARCALULADORA\CALCULATORVISITOR.CPP
/c /I"D:\DESCARGAS\TP-GRUPO4\/INCLUDE" /ZI /JMC /nologo /W3 /WX- /diagnostics:column /sdl /Od /D _DEBUG /D _CONSOLE /D _UNICODE /D UNICODE /Gm- /EHsc /RTC1 /MDd /GS /fp:precise /Zc:wchar_t /Zc:forScope /Zc:inline /permissive- /Fo"EXPRESSION\X64\DEBUG\\" /Fd"EXPRESSION\X64\DEBUG\VC143.PDB" /external:W3 /Gd /TP /FC D:\DESCARGAS\PROBARCALULADORA\CALCULATORVISITOR.CPP
^D:\DESCARGAS\PROBARCALULADORA\CALCULATORBASEVISITOR.CPP
/c /I"D:\DESCARGAS\TP-GRUPO4\/INCLUDE" /ZI /JMC /nologo /W3 /WX- /diagnostics:column /sdl /Od /D _DEBUG /D _CONSOLE /D _UNICODE /D UNICODE /Gm- /EHsc /RTC1 /MDd /GS /fp:precise /Zc:wchar_t /Zc:forScope /Zc:inline /permissive- /Fo"EXPRESSION\X64\DEBUG\\" /Fd"EXPRESSION\X64\DEBUG\VC143.PDB" /external:W3 /Gd /TP /FC D:\DESCARGAS\PROBARCALULADORA\CALCULATORBASEVISITOR.CPP
^D:\DESCARGAS\PROBARCALULADORA\CALCULATORBASELISTENER.CPP
/c /I"D:\DESCARGAS\TP-GRUPO4\/INCLUDE" /ZI /JMC /nologo /W3 /WX- /diagnostics:column /sdl /Od /D _DEBUG /D _CONSOLE /D _UNICODE /D UNICODE /Gm- /EHsc /RTC1 /MDd /GS /fp:precise /Zc:wchar_t /Zc:forScope /Zc:inline /permissive- /Fo"EXPRESSION\X64\DEBUG\\" /Fd"EXPRESSION\X64\DEBUG\VC143.PDB" /external:W3 /Gd /TP /FC D:\DESCARGAS\PROBARCALULADORA\CALCULATORBASELISTENER.CPP
^D:\DESCARGAS\TP-GRUPO4\MAIN.CPP
/c /I"D:\DESCARGAS\TP-GRUPO4\/INCLUDE" /ZI /JMC /nologo /W3 /WX- /diagnostics:column /sdl /Od /D _DEBUG /D _CONSOLE /D _UNICODE /D UNICODE /Gm- /EHsc /RTC1 /MDd /GS /fp:precise /Zc:wchar_t /Zc:forScope /Zc:inline /permissive- /Fo"EXPRESSION\X64\DEBUG\\" /Fd"EXPRESSION\X64\DEBUG\VC143.PDB" /external:W3 /Gd /TP /FC D:\DESCARGAS\TP-GRUPO4\MAIN.CPP
